<?xml version="1.0" encoding="UTF-8"?>
<?xml-model href="http://music-encoding.org/schema/3.0.0/mei-all.rng" type="application/xml" schematypens="http://relaxng.org/ns/structure/1.0"?>
<?xml-model href="http://music-encoding.org/schema/3.0.0/mei-all.rng" type="application/xml" schematypens="http://purl.oclc.org/dsdl/schematron"?>
<mei xmlns="http://www.music-encoding.org/ns/mei" meiversion="3.0.0">
    <meiHead>
        <fileDesc>
            <titleStmt>
                <title>String Quartet No. 2 in G Major, Op. 18, No. 2</title>
                <respStmt>
                    <persName role="Composer">Beethoven, Ludwig van</persName>
                </respStmt>
            </titleStmt>
            <pubStmt>
                <date>2016-09-22 19:36:27</date>
            </pubStmt>
        </fileDesc>
        <encodingDesc>
            <projectDesc>
                <p>Transcoded from Humdrum with Verovio version 0.9.12-dev-6879362</p>
                <p>Encoded by: Craig Stuart Sapp</p>
            </projectDesc>
        </encodingDesc>
    </meiHead>
    <music>
        <body>
            <mdiv>
                <score>
                    <scoreDef xml:id="scoredef-000000112026657" midi.bpm="120">
                        <staffGrp xml:id="m-000000073438725" symbol="bracket">
                            <staffDef xml:id="staffdef-000000188409300" clef.shape="G" clef.line="2" key.sig="1s" meter.count="2" meter.unit="4" n="1" lines="5" />
                            <staffDef xml:id="staffdef-000000181458701" clef.shape="G" clef.line="2" key.sig="1s" meter.count="2" meter.unit="4" n="2" lines="5" />
                            <staffDef xml:id="staffdef-000000159205938" clef.shape="C" clef.line="3" key.sig="1s" meter.count="2" meter.unit="4" n="3" lines="5" />
                            <staffDef xml:id="staffdef-000000082032297" clef.shape="F" clef.line="4" key.sig="1s" meter.count="2" meter.unit="4" n="4" lines="5" />
                        </staffGrp>
                    </scoreDef>
                    <section xml:id="section-000000152062723">
                        <measure xml:id="measure-000000113764484" n="1">
                            <staff xml:id="staff-000000198862101" n="1">
                                <layer xml:id="layer-000000015998420" n="1">
                                    <note xml:id="note-L20F7" dur="4" oct="5" pname="d" accid.ges="n" stem.dir="down" />
                                    <beam xml:id="beam-000000194964102">
                                        <note xml:id="note-L21F7" dur="32" oct="4" pname="b" accid.ges="n" stem.dir="down" />
                                        <note xml:id="note-L22F7" dur="32" oct="5" pname="c" accid.ges="n" stem.dir="down" />
                                        <note xml:id="note-L23F7" dur="32" oct="4" pname="b" accid.ges="n" stem.dir="down" />
                                        <note xml:id="note-L24F7" dur="32" oct="5" pname="c" accid.ges="n" stem.dir="down" />
                                        <note xml:id="note-L25F7" dur="32" oct="5" pname="d" accid.ges="n" stem.dir="down" />
                                        <note xml:id="note-L26F7" dur="32" oct="5" pname="e" accid.ges="n" stem.dir="down" />
                                        <note xml:id="note-L27F7" dur="32" oct="5" pname="f" accid.ges="s" stem.dir="down" />
                                        <note xml:id="note-L28F7" dur="32" oct="5" pname="g" accid.ges="n" stem.dir="down" />
                                    </beam>
                                </layer>
                            </staff>
                            <staff xml:id="staff-000000029115285" n="2">
                                <layer xml:id="layer-000000128862651" n="1">
                                    <note xml:id="note-L20F5" dur="2" oct="4" pname="d" accid.ges="n" stem.dir="up" />
                                </layer>
                            </staff>
                            <staff xml:id="staff-000000075671705" n="3">
                                <layer xml:id="layer-000000070216836" n="1">
                                    <note xml:id="note-L20F3" dur="2" oct="3" pname="b" accid.ges="n" stem.dir="up" />
                                </layer>
                            </staff>
                            <staff xml:id="staff-000000086898664" n="4">
                                <layer xml:id="layer-000000061614032" n="1">
                                    <note xml:id="note-L20F1" dur="2" oct="3" pname="g" accid.ges="n" stem.dir="down" />
                                </layer>
                            </staff>
                            <tempo xml:id="tempo-000000185130380" staff="1" tstamp="1.000000">Allegro</tempo>
                            <dynam xml:id="dynam-000000192490654" staff="1" tstamp="1.000000">p</dynam>
                            <slur xml:id="slur-000000193159461" staff="1" startid="#note-L20F7" endid="#note-L28F7" />
                            <dynam xml:id="dynam-000000027601534" staff="2" tstamp="1.000000">p</dynam>
                            <dynam xml:id="dynam-000000130200721" staff="3" tstamp="1.000000">p</dynam>
                            <dynam xml:id="dynam-000000181227946" staff="4" tstamp="1.000000">p</dynam>
                            <tie xml:id="tie-000000131708360" startid="#note-L20F5" endid="#note-L30F5" />
                            <tie xml:id="tie-000000040287769" startid="#note-L20F3" endid="#note-L30F3" />
                            <tie xml:id="tie-000000057834063" startid="#note-L20F1" endid="#note-L30F1" />
                        </measure>
                    </section>
                </score>
            </mdiv>
        </body>
    </music>
</mei>
